3.039298425164815853e-03
3.450698646361161082e-03
3.765324257187785406e-03
3.919820134683504875e-03
3.978399706170421268e-03
3.973289362875220831e-03
3.968179001390126359e-03
3.645980092983336363e-03
3.546239875049650436e-03
3.446774798590013233e-03
2.684376912611696753e-03
